<?xml version="1.0" encoding="utf-8"?>
<!-- Generator: Adobe Illustrator 23.0.6, SVG Export Plug-In . SVG Version: 6.00 Build 0)  -->
<svg version="1.1" id="Layer_2" xmlns="http://www.w3.org/2000/svg" xmlns:xlink="http://www.w3.org/1999/xlink" x="0px" y="0px"
	 viewBox="0 0 1920 2496" style="enable-background:new 0 0 1920 2496;" xml:space="preserve">
<style type="text/css">
	.st0{fill:#CD5B5C;}
	.st1{fill:#933F40;}
	.st2{fill:#53191A;}
</style>
<path class="st0" d="M0,2377c0,0,121,101,299,11s307-334,409-325s-109-54,125-93s336,36,432,31s66.02,51.36,243,55s-162,171,84,154
	s169.97,243,328,243c0-116,0-793.47,0-793.47S1037,1804,983,1798S0,1701.88,0,1701.88V2377z"/>
<path class="st1" d="M1920,1730H0v480c0,0,50-19,267.59-113C532.35,1982.62,492,1855,996,1819s567.65,278,715.82,278
	s208.18,28,208.18,28V1730z"/>
<path class="st0" d="M0,555c133-42,166,0,187.86,0c23.36,0,43.56,24.96,67.54,25.59c23.99,0.63,6.31,99.1,28.41,96.58
	s0-16.41,25.88-16.41c25.88,0-0.63,68.81,22.09,71.33c22.72,2.52,13.26-23.99,29.67-17.04c16.41,6.94,2.52,10.73,15.78,14.52
	c13.26,3.79-16.41,132.56,13.89,113.62s10.73-22.72,25.25-23.36c14.52-0.63,5.68,25.76,26.51,26.13s64.39,8.8,63.12,28.36
	c-1.26,19.57,49.24,10.26,65.02,34.51c15.78,24.25,51.76,53.02,53.02,70.07c1.26,17.04,83.96,65.02,83.96,86.48
	c0,21.46-14.52,125.62-14.52,125.62H0V555z"/>
<path class="st1" d="M0,942.67c24.92-29.06,96.91-118.88,127.95-115.58c31.04,3.3,35.88,60.76,56.58,71.99
	c20.69,11.23,29.94,62.96,61.64,70.23s6.92,31.05,81.24,24.22c59.88-5.5,76.61,66.27,102.15,86.08
	c22.33,17.33,65.16,4.18,115.36,37.43c0,40.15-23.34,73.97-23.34,73.97H0V942.67z"/>
<path class="st0" d="M1920,630c-22.33,0-88,0-126.55,0c-16.76,0-28.28,4.92-29.02,9.58c-2.47,15.44,3.7,92.64,0,94.5
	c-3.7,1.85-8.64-8.65-37.04-5.56c-28.4,3.09-32.1-10.5-32.1-28.41s-43.83-16.06-53.09-12.35c-9.26,3.71-3.09,69.17-11.73,70.41
	c-8.64,1.24-8.64-5.56-20.37-3.71c-11.73,1.85,3.7-22.63-23.46-23.36c-27.16-0.73-36.42,3.59-30.87,46.21s-8.95,7.1-15.43,11.43
	c-2.16-3.4-6.17-12.51-12.66-8.03c-6.48,4.48,5.11,40.73-1.52,43.36c-6.64,2.62-10.21-9.08-17.31-3.83
	c-7.1,5.25-12.33,11.7-14.8,20.51s-4.48,0.62-4.63-7.57c-0.15-8.18,10.8-64.33-28.71-60.19c-39.51,4.14-31.48,22.67-31.48,83.19
	s-12.99,81.71-14.84,53.92c-1.51-22.61-3.7-41.69-13.58-27.18c-8.18,12.02-20.06,12.97-16.98,27.18
	c3.09,14.21,3.82,49.29-16.55,63.5c-20.37,14.21-12.15,5.06-30.67,5.68c-18.52,0.62-26.55,6.91-41.36,18.28
	c-14.82,11.37-4.94,15.69-4.94,34.22c0,18.53-25.31,28.4-25.31,62.99c0,34.59,0,169.23,0,169.23h655V630z"/>
<path class="st1" d="M1920,905.67c-18.56-27-80.16,35.44-110.53,54c-30.38,18.56-41.34-10.97-72.56,6.75s-97.03,123.73-135,122.2
	s-31.22,48.35-91.97,64.17c-60.75,15.82-101.25,43.14-101.25,43.14L1374.1,1263H1920V905.67z"/>
<path class="st2" d="M1764.59,1579.53c-18.59,8.93-50.73,11.09-103.97,11.23v-84.7c6.91,0.3,15.49,0.03,26.19,0.03
	c31.85,0,36.4-23.21,37-42.44c0.01-0.23,0.07-0.44,0.07-0.67v-2.95c0.03-3.03,0-5.92,0-8.53v-78.77c0-10.41-8.52-18.94-18.94-18.94
	c-10.41,0-18.94,8.52-18.94,18.94v70.43c0,20.55-25.38,23.87-25.38,0v-233.21c0-10.41-8.52-18.94-18.94-18.94
	c-10.41,0-18.94,8.52-18.94,18.94v129.33c-0.15,23.64-25.37,20.29-25.37-0.2v-70.43c0-10.41-8.52-18.94-18.94-18.94
	c-10.41,0-18.94,8.52-18.94,18.94v78.77c0,2.61-0.03,5.5,0,8.53v2.95c0,0.23,0.06,0.44,0.07,0.67c0.59,19.22,5.15,42.44,37,42.44
	c10.69,0,19.26,0.28,26.17-0.03v188.63c-13.4-0.11-27.82-0.27-43.37-0.43c-104.32-1.06-166.06,45.77-184.15,35.13
	c-18.1-10.64-72.38,33-72.38,33s-3.19-21.29,5.32-33c-7.45,0-26.61,8.52-33,37.26c-19.16-35.13-27.68-35.13-64.93-30.87
	c17.03,4.26,35.13,17.03,41.51,37.26c-24.48,26.61-104.86,16.19-118.7,8.74c-13.84-7.45-13.65-47.06,4.81-59.14
	c-25.55,1.76-36.9,31.24-34.06,54.66c-3.19-8.52-28.74-26.61-64.93-20.22c20.5,3.78,40.09,13.13,44.71,24.48
	c-41.51-2.13-59.61,48.97-106.45,30.87c-46.84-18.1-96.87,3.19-127.74,7.45c-30.87,4.26-118.15-35.13-169.25-23.42
	c-51.09,11.71-135.19-30.87-186.28-47.9s-33-39.39-88.35-19.16c-44.49,16.26-63.55-15.61-94.74-26.54v-193.48
	c6.09,0.27,13.64,0.02,23.05,0.02c28.05,0,32.06-20.44,32.58-37.37c0.01-0.2,0.06-0.39,0.06-0.59v-2.6c0.03-2.67,0-5.22,0-7.51
	v-69.37c0-9.17-7.5-16.68-16.68-16.68s-16.68,7.5-16.68,16.68v62.02c0,18.04-22.21,20.99-22.34,0.17v-72.84
	c0-9.17-7.5-16.68-16.68-16.68s-16.68,7.5-16.68,16.68v144.34c0,21.02-22.35,18.1-22.35,0v-62.02c0-9.17-7.5-16.68-16.68-16.68
	c-9.17,0-16.68,7.5-16.68,16.68v69.37c0,2.3-0.03,4.84,0,7.51v2.6c0,0.2,0.05,0.39,0.06,0.59c0.52,16.93,4.53,37.37,32.58,37.37
	c9.42,0,16.97,0.25,23.06-0.02v118.97c-7.54-0.07-19.68-1.41-32.64-7.89c-21.29-10.64-39.38-11.71-68.13-8.52
	c-3.19-8.52-2.13-37.26,9.58-58.55c-39.38,10.64-36.19,50.56-36.19,50.56s-19.16-19.69-54.29-16.5
	c27.68,6.39,39.38,27.68,39.38,27.68s-98.99-3.19-155.13,5.32v171.38c0,0,189.72,95.13,394,63.58c259-40,290,132,807,106
	c330.51-16.62-88-76,245-148c217.95-47.13,474-21.58,474-21.58s0-144.77,0-210.76C1859.33,1548.66,1791.2,1566.75,1764.59,1579.53z"
	/>
</svg>
