<?xml version="1.0" encoding="utf-8"?>
<!-- Generator: Adobe Illustrator 23.0.6, SVG Export Plug-In . SVG Version: 6.00 Build 0)  -->
<svg version="1.1" id="Layer_1" xmlns="http://www.w3.org/2000/svg" xmlns:xlink="http://www.w3.org/1999/xlink" x="0px" y="0px"
	 viewBox="0 0 427 90" style="enable-background:new 0 0 427 90;" xml:space="preserve">
<style type="text/css">
	.st0{fill:#FCA534;}
	.st1{fill:#FCBF42;}
	.st2{fill:#FC9527;}
	.st3{fill:#FCD861;}
	.st4{fill:#FFFFFF;}
</style>
<g>
	<path class="st0" d="M427.12,15.47c0-0.18-0.02-0.35-0.03-0.52c-0.02-0.35-0.04-0.71-0.08-1.05c-0.03-0.2-0.07-0.4-0.1-0.6
		c-0.05-0.31-0.1-0.62-0.17-0.93c-0.05-0.21-0.11-0.41-0.16-0.62c-0.08-0.29-0.16-0.57-0.25-0.85c-0.07-0.21-0.15-0.41-0.23-0.62
		c-0.1-0.27-0.21-0.53-0.33-0.79c-0.09-0.2-0.19-0.41-0.29-0.6c-0.13-0.25-0.26-0.49-0.4-0.74c-0.11-0.2-0.23-0.39-0.35-0.59
		c-0.15-0.23-0.3-0.45-0.46-0.67c-0.13-0.19-0.27-0.38-0.41-0.56c-0.16-0.21-0.33-0.41-0.51-0.61c-0.16-0.18-0.31-0.36-0.47-0.54
		c-0.17-0.18-0.36-0.35-0.54-0.53c-0.18-0.17-0.36-0.35-0.55-0.52c-0.17-0.15-0.35-0.28-0.53-0.42c-0.86-0.68-1.78-1.28-2.77-1.77
		c-0.13-0.07-0.26-0.14-0.4-0.2c-0.29-0.14-0.6-0.25-0.9-0.37c-0.17-0.07-0.33-0.14-0.51-0.2c-0.3-0.1-0.6-0.19-0.91-0.27
		c-0.19-0.05-0.37-0.11-0.56-0.15c-0.3-0.07-0.61-0.13-0.93-0.18c-0.13-0.02-0.25-0.06-0.38-0.08l-0.09,0
		c-0.72-0.1-1.46-0.18-2.21-0.18l-101.1,0l-28.19-0.05L266.83,0.3l-98.53,0L140.1,0.25L13.14-0.05C6.72-0.06,1.42,4.87,0.91,11.19
		c-0.02,0.21-0.02,0.41-0.03,0.62c-0.22,6.9,5.31,12.63,12.22,12.65l46.55,0.33c6.57,0.39,11.73,5.93,11.51,12.61
		c-0.19,5.93-4.57,10.77-10.25,11.7l-24.76-0.07c-0.69,0-1.36,0.05-2.02,0.16c-5.48,0.91-9.75,5.44-10.21,11.09
		c-0.02,0.21-0.02,0.41-0.03,0.62c-0.22,6.9,5.31,12.63,12.22,12.65l18.21-0.12c-0.63,8.97,6.47,16.62,15.47,16.61l142.13,0
		c0.03,0,0.06,0,0.09,0l194.85,0.01c8.07-0.01,14.81-6.2,15.46-14.26l0.16-1.97l1.99-24.5l1.97-24.3l0.64-7.94
		C427.12,16.54,427.14,16,427.12,15.47z"/>
	<path class="st1" d="M389.84,6.43L19.52,3.33c-4.62-0.06-8.47,3.52-8.74,8.13c-0.29,4.9,3.56,9.06,8.47,9.14l48.67,0.84
		c8.82,0.15,15.69,7.72,14.97,16.52c-0.65,7.96-7.3,14.08-15.29,14.05l-24.41-0.08c-4.38-0.01-7.97,3.48-8.07,7.87l0,0
		c-0.1,4.54,3.56,8.26,8.1,8.23l42.02-0.29l-0.03,0.26l293.64-1.28c9.37-0.06,17.14-7.28,17.9-16.62l2.69-33.13
		C399.9,11.35,395.49,6.5,389.84,6.43z"/>
	<path class="st2" d="M427.13,15.47c0-0.18-0.03-0.35-0.03-0.52c-0.02-0.35-0.05-0.7-0.08-1.06c-0.03-0.2-0.06-0.4-0.1-0.6
		c-0.05-0.31-0.1-0.62-0.17-0.92c-0.05-0.21-0.11-0.41-0.17-0.63c-0.07-0.28-0.15-0.57-0.25-0.85c-0.07-0.21-0.15-0.41-0.22-0.61
		c-0.1-0.27-0.21-0.54-0.33-0.8c-0.09-0.21-0.18-0.4-0.29-0.6c-0.12-0.26-0.25-0.49-0.39-0.74c-0.12-0.2-0.22-0.39-0.35-0.59
		c-0.14-0.23-0.29-0.45-0.46-0.67c-0.14-0.19-0.27-0.38-0.41-0.56c-0.16-0.21-0.33-0.41-0.51-0.61c-0.16-0.18-0.31-0.37-0.48-0.54
		c-0.17-0.18-0.36-0.35-0.53-0.52c-0.18-0.18-0.36-0.36-0.55-0.52c-0.17-0.16-0.35-0.28-0.52-0.43c-0.86-0.68-1.79-1.27-2.77-1.76
		c-0.14-0.07-0.26-0.14-0.4-0.2c-0.29-0.14-0.59-0.25-0.9-0.37c-0.17-0.07-0.34-0.14-0.51-0.2c-0.29-0.1-0.6-0.18-0.91-0.27
		c-0.18-0.05-0.37-0.11-0.55-0.15c-0.31-0.07-0.62-0.14-0.93-0.19c-0.13-0.02-0.25-0.05-0.38-0.07c0.01,0.02,0.01,0.05,0.01,0.07
		c0.04,0.35,0.07,0.7,0.08,1.06c0.01,0.17,0.03,0.34,0.03,0.52c0.01,0.53,0,1.07-0.05,1.61l-4.76,58.71
		c-0.65,8.06-7.39,14.25-15.46,14.26c0,0-197.13-0.07-197.13-0.01l-139.94,0c-0.78,0-1.55-0.06-2.3-0.17
		c0.98,7.56,7.44,13.51,15.38,13.51l142.12,0c0.03,0,0.07,0,0.1,0l194.85,0.01c8.07-0.01,14.81-6.2,15.46-14.26l4.76-58.71
		C427.13,16.54,427.14,16,427.13,15.47z"/>
	<path class="st3" d="M57.17,7.35c0.15-2.37-1.76-4.36-4.13-4.32l-1.46-0.05c-1.83,0.03-3.37,1.28-3.84,2.99
		C47.17,4.43,45.7,3.3,43.94,3.3L22.45,3.18c-2.12-0.01-3.89,1.61-4.07,3.71c-0.21,2.36,1.65,4.4,4.02,4.42l21.48,0.16
		c1.88,0.01,3.49-1.26,3.95-3.02c0.58,1.56,2.1,2.68,3.88,2.65l1.46,0.1c2.12-0.03,3.86-1.69,3.99-3.81L57.17,7.35z"/>
</g>
<g>
	<path class="st4" d="M121.59,30.69h-5.1l0.61-2.88h13.53l-0.61,2.88h-5.01l-3.94,18.54h-3.42L121.59,30.69z"/>
	<path class="st4" d="M128.89,38.52c1.63-7.65,4.53-11.13,9.45-11.13s6.34,3.48,4.71,11.13c-1.63,7.65-4.53,11.13-9.45,11.13
		S127.27,46.17,128.89,38.52z M139.65,38.43c1.53-7.2,0.18-8.46-1.86-8.46c-2.04,0-3.93,1.26-5.46,8.46
		c-1.57,7.38-0.22,8.64,1.82,8.64S138.08,45.81,139.65,38.43z"/>
	<path class="st4" d="M145.87,27.81h3.63l-0.01,17.1h0.06l7.48-17.1h3.63l-9.95,21.42h-4.35L145.87,27.81z"/>
	<path class="st4" d="M166.3,27.81h4.38l1.09,21.42h-3.57l-0.2-5.25h-6.27l-2.5,5.25h-3.57L166.3,27.81z M168,41.25l-0.21-10.56
		h-0.06l-4.79,10.56H168z M169.81,22.29h3.6l-4.1,4.32h-2.22L169.81,22.29z"/>
	<path class="st4" d="M177.82,27.81h6.93c3.18,0,5.46,1.41,4.66,5.19c-0.56,2.61-1.91,4.2-4.18,4.86l-0.01,0.06
		c2.25,0.42,3.45,1.83,2.68,5.46c-0.76,3.57-3.82,5.85-7.84,5.85h-6.78L177.82,27.81z M180.62,46.65c2.04,0,3.43-1.32,3.95-3.78
		c0.49-2.31-0.61-3.63-2.59-3.63h-3.18l-1.58,7.41H180.62z M182.02,36.84c2.07,0,3.44-1.38,3.87-3.39c0.54-2.55-0.88-3.06-2.8-3.06
		h-2.4l-1.37,6.45H182.02z"/>
	<path class="st4" d="M193.93,27.81h6.93c3.18,0,5.46,1.41,4.66,5.19c-0.55,2.61-1.91,4.2-4.18,4.86l-0.01,0.06
		c2.25,0.42,3.45,1.83,2.68,5.46c-0.76,3.57-3.82,5.85-7.84,5.85h-6.78L193.93,27.81z M196.73,46.65c2.04,0,3.43-1.32,3.95-3.78
		c0.49-2.31-0.61-3.63-2.59-3.63h-3.18l-1.58,7.41H196.73z M198.13,36.84c2.07,0,3.44-1.38,3.87-3.39c0.54-2.55-0.88-3.06-2.8-3.06
		h-2.4l-1.37,6.45H198.13z"/>
	<path class="st4" d="M209.89,27.81h3.42l-4.55,21.42h-3.42L209.89,27.81z"/>
	<path class="st4" d="M223.39,42.6l-0.12,0.54c-0.55,2.61,0.3,3.93,2.67,3.93c2.16,0,3.57-1.53,3.9-3.12
		c0.48-2.25-0.45-3.24-2.25-3.81l-2.17-0.81c-2.87-1.2-3.87-2.82-3.22-5.88c0.83-3.9,3.93-6.06,7.95-6.06
		c5.49,0,5.33,3.42,4.86,5.64l-0.1,0.48h-3.42l0.1-0.45c0.42-1.95-0.21-3.09-2.34-3.09c-1.47,0-3.05,0.81-3.54,3.09
		c-0.39,1.83,0.34,2.76,2.44,3.63l2.13,0.84c2.8,1.08,3.77,2.73,3.14,5.67c-0.97,4.56-4.13,6.45-8.45,6.45
		c-5.31,0-5.76-3.54-5.12-6.54l0.11-0.51H223.39z"/>
	<path class="st4" d="M234.26,46.53l12.34-15.84h-8.43l0.61-2.88h12.18l-0.61,2.88l-12.3,15.66h9.06l-0.61,2.88h-12.81L234.26,46.53
		z"/>
	<path class="st4" d="M253.36,27.81h11.58l-0.61,2.88h-8.16l-1.26,5.94h7.68l-0.61,2.88h-7.68l-1.46,6.84h8.4l-0.61,2.88H248.8
		L253.36,27.81z"/>
	<path class="st4" d="M267.79,27.81h5.34l0.4,15.87h0.06l7.09-15.87h5.22l-4.55,21.42h-3.24l3.79-17.82h-0.06l-8.11,17.82h-2.88
		l-0.53-17.82h-0.06l-3.79,17.82h-3.24L267.79,27.81z"/>
	<path class="st4" d="M289.45,27.81h11.58l-0.61,2.88h-8.16l-1.26,5.94h7.68l-0.61,2.88h-7.68l-1.45,6.84h8.4l-0.61,2.88h-11.82
		L289.45,27.81z M296.59,22.29h3.6l-4.1,4.32h-2.22L296.59,22.29z"/>
	<path class="st4" d="M303.48,27.81h3.42l-3.94,18.54h8.28l-0.61,2.88h-11.7L303.48,27.81z"/>
	<path class="st4" d="M315.29,40.86l-2.75-13.05h3.81l1.63,9.24l5.65-9.24h3.57l-8.5,13.05l-1.78,8.37h-3.42L315.29,40.86z"/>
	<path class="st4" d="M328.87,27.81h11.58l-0.61,2.88h-8.16l-1.26,5.94h7.68l-0.61,2.88h-7.68l-1.46,6.84h8.4l-0.61,2.88h-11.82
		L328.87,27.81z"/>
	<path class="st4" d="M342.79,42.6l-0.11,0.54c-0.56,2.61,0.3,3.93,2.67,3.93c2.16,0,3.56-1.53,3.9-3.12
		c0.48-2.25-0.45-3.24-2.25-3.81l-2.17-0.81c-2.86-1.2-3.87-2.82-3.22-5.88c0.83-3.9,3.93-6.06,7.95-6.06
		c5.49,0,5.33,3.42,4.86,5.64l-0.1,0.48h-3.42l0.1-0.45c0.41-1.95-0.21-3.09-2.34-3.09c-1.47,0-3.05,0.81-3.54,3.09
		c-0.39,1.83,0.34,2.76,2.44,3.63l2.13,0.84c2.8,1.08,3.77,2.73,3.14,5.67c-0.97,4.56-4.13,6.45-8.45,6.45
		c-5.31,0-5.76-3.54-5.12-6.54l0.11-0.51H342.79z"/>
</g>
</svg>
